\relax 
\providecommand\hyper@newdestlabel[2]{}
\providecommand\HyperFirstAtBeginDocument{\AtBeginDocument}
\HyperFirstAtBeginDocument{\ifx\hyper@anchor\@undefined
\global\let\oldcontentsline\contentsline
\gdef\contentsline#1#2#3#4{\oldcontentsline{#1}{#2}{#3}}
\global\let\oldnewlabel\newlabel
\gdef\newlabel#1#2{\newlabelxx{#1}#2}
\gdef\newlabelxx#1#2#3#4#5#6{\oldnewlabel{#1}{{#2}{#3}}}
\AtEndDocument{\ifx\hyper@anchor\@undefined
\let\contentsline\oldcontentsline
\let\newlabel\oldnewlabel
\fi}
\fi}
\global\let\hyper@last\relax 
\gdef\HyperFirstAtBeginDocument#1{#1}
\providecommand*\HyPL@Entry[1]{}
\HyPL@Entry{0<</P()>>}
\newlabel{index::doc}{{}{}{}{section*.2}{}}
\@writefile{toc}{\contentsline {chapter}{\numberline {第1章}AJOCCカテゴリーとは}{}{chapter.1}}
\@writefile{lof}{\addvspace {10\p@ }}
\@writefile{lot}{\addvspace {10\p@ }}
\newlabel{index:ajocc}{{1}{}{AJOCCカテゴリーとは}{chapter.1}{}}
\@writefile{toc}{\contentsline {chapter}{\numberline {第2章}2018シーズンにおける残留基準}{}{chapter.2}}
\@writefile{lof}{\addvspace {10\p@ }}
\@writefile{lot}{\addvspace {10\p@ }}
\newlabel{index:id2}{{2}{}{2018シーズンにおける残留基準}{chapter.2}{}}
\@writefile{toc}{\contentsline {chapter}{\numberline {第3章}残留基準を満たすためには}{}{chapter.3}}
\@writefile{lof}{\addvspace {10\p@ }}
\@writefile{lot}{\addvspace {10\p@ }}
\newlabel{index:id3}{{3}{}{残留基準を満たすためには}{chapter.3}{}}
\@writefile{toc}{\contentsline {section}{\numberline {3.1}C1選手が残留するためには}{}{section.3.1}}
\newlabel{index:c1}{{3.1}{}{C1選手が残留するためには}{section.3.1}{}}
\@writefile{toc}{\contentsline {section}{\numberline {3.2}C2選手が残留するためには}{}{section.3.2}}
\newlabel{index:c2}{{3.2}{}{C2選手が残留するためには}{section.3.2}{}}
\@writefile{toc}{\contentsline {section}{\numberline {3.3}C3選手が残留するためには}{}{section.3.3}}
\newlabel{index:c3}{{3.3}{}{C3選手が残留するためには}{section.3.3}{}}
\@writefile{toc}{\contentsline {section}{\numberline {3.4}まとめ}{}{section.3.4}}
\newlabel{index:id4}{{3.4}{}{まとめ}{section.3.4}{}}
\@writefile{toc}{\contentsline {chapter}{\numberline {第4章}おわりに}{}{chapter.4}}
\@writefile{lof}{\addvspace {10\p@ }}
\@writefile{lot}{\addvspace {10\p@ }}
\newlabel{index:id5}{{4}{}{おわりに}{chapter.4}{}}
