\contentsline {chapter}{\numberline {第1章}AJOCCカテゴリーとは}{}{chapter.1}
\contentsline {chapter}{\numberline {第2章}2018シーズンにおける残留基準}{}{chapter.2}
\contentsline {chapter}{\numberline {第3章}残留基準を満たすためには}{}{chapter.3}
\contentsline {section}{\numberline {3.1}C1選手が残留するためには}{}{section.3.1}
\contentsline {section}{\numberline {3.2}C2選手が残留するためには}{}{section.3.2}
\contentsline {section}{\numberline {3.3}C3選手が残留するためには}{}{section.3.3}
\contentsline {section}{\numberline {3.4}まとめ}{}{section.3.4}
\contentsline {chapter}{\numberline {第4章}おわりに}{}{chapter.4}
